<svg width="83" height="80" viewBox="0 0 83 80" fill="none" xmlns="http://www.w3.org/2000/svg">
<mask id="path-1-inside-1" fill="white">
<path d="M81.3793 68.9655H80V19.3103C80 16.2633 77.5298 13.7931 74.4828 13.7931H68.9655V5.51724C68.9655 2.47017 66.4953 0 63.4483 0H30.3448C27.2978 0 24.8276 2.47017 24.8276 5.51724V6.89655H22.069C19.0219 6.89655 16.5517 9.36672 16.5517 12.4138V13.7931H8.27586C5.22879 13.7931 2.75862 16.2633 2.75862 19.3103V68.9655H1.37931C0.617586 68.9655 0 69.5831 0 70.3448V74.4828C0 77.5298 2.47017 80 5.51724 80H77.2414C80.2885 80 82.7586 77.5298 82.7586 74.4828V70.3448C82.7586 69.5831 82.141 68.9655 81.3793 68.9655ZM27.5862 5.51724C27.5862 3.99362 28.8212 2.75862 30.3448 2.75862H63.4483C64.9719 2.75862 66.2069 3.99362 66.2069 5.51724V27.5862C66.2069 29.1098 64.9719 30.3448 63.4483 30.3448H60.6897C60.2555 30.3448 59.8467 30.5493 59.5862 30.8966L56.5517 34.9421L53.5172 30.8966C53.2567 30.5493 52.8479 30.3448 52.4138 30.3448H30.3448C28.8212 30.3448 27.5862 29.1098 27.5862 27.5862V5.51724ZM19.3103 12.4138C19.3103 10.8902 20.5453 9.65517 22.069 9.65517H24.8276V27.5862C24.8276 30.6333 27.2978 33.1034 30.3448 33.1034H48.2759V34.4828C48.2759 36.0064 47.0409 37.2414 45.5172 37.2414H35.8621C35.4279 37.2414 35.0191 37.4459 34.7586 37.7931L31.7241 41.8386L28.6897 37.7931C28.4291 37.4459 28.0203 37.2414 27.5862 37.2414H22.069C20.5453 37.2414 19.3103 36.0064 19.3103 34.4828V12.4138ZM22.069 40H26.8966L30.6207 44.9655C31.0778 45.575 31.9422 45.6984 32.5517 45.2414C32.6562 45.1629 32.7491 45.07 32.8276 44.9655L36.5517 40H45.5172C48.5643 40 51.0345 37.5298 51.0345 34.4828V33.1034H51.7241L55.4483 38.069C55.9053 38.6784 56.7698 38.8019 57.3793 38.3448C57.4838 38.2664 57.5767 38.1735 57.6552 38.069L61.3793 33.1034H63.4483C66.4953 33.1034 68.9655 30.6333 68.9655 27.5862V22.069H71.7241V60.6897H66.2069V59.3103C66.2062 57.0172 65.0659 54.8745 63.1641 53.5931C65.3447 51.4647 65.3869 47.9717 63.2586 45.791C61.1302 43.6105 57.6372 43.5683 55.4566 45.6967C53.276 47.8252 53.2338 51.3181 55.3621 53.4988C55.3931 53.5307 55.4247 53.5621 55.4566 53.5931C53.5548 54.8745 52.4145 57.0172 52.4138 59.3103V60.6897H30.3448V59.3103C30.3441 57.0172 29.2038 54.8745 27.3021 53.5931C29.4826 51.4647 29.5248 47.9717 27.3966 45.791C25.2681 43.6105 21.7752 43.5683 19.5945 45.6967C17.414 47.8252 17.3717 51.3181 19.5 53.4988C19.531 53.5307 19.5626 53.5621 19.5945 53.5931C17.6928 54.8745 16.5524 57.0172 16.5517 59.3103V60.6897H11.0345V22.069H16.5517V34.4828C16.5517 37.5298 19.0219 40 22.069 40ZM59.3103 55.1724C61.5957 55.1724 63.4483 57.025 63.4483 59.3103V60.6897H55.1724V59.3103C55.1724 57.025 57.025 55.1724 59.3103 55.1724ZM56.5517 49.6552C56.5517 48.1316 57.7867 46.8966 59.3103 46.8966C60.834 46.8966 62.069 48.1316 62.069 49.6552C62.069 51.1788 60.834 52.4138 59.3103 52.4138C57.7867 52.4138 56.5517 51.1788 56.5517 49.6552ZM23.4483 55.1724C25.7336 55.1724 27.5862 57.025 27.5862 59.3103V60.6897H19.3103V59.3103C19.3103 57.025 21.1629 55.1724 23.4483 55.1724ZM20.6897 49.6552C20.6897 48.1316 21.9247 46.8966 23.4483 46.8966C24.9719 46.8966 26.2069 48.1316 26.2069 49.6552C26.2069 51.1788 24.9719 52.4138 23.4483 52.4138C21.9247 52.4138 20.6897 51.1788 20.6897 49.6552ZM5.51724 19.3103C5.51724 17.7867 6.75224 16.5517 8.27586 16.5517H16.5517V19.3103H9.65517C8.89345 19.3103 8.27586 19.9279 8.27586 20.6897V62.069C8.27586 62.8307 8.89345 63.4483 9.65517 63.4483H73.1034C73.8652 63.4483 74.4828 62.8307 74.4828 62.069V20.6897C74.4828 19.9279 73.8652 19.3103 73.1034 19.3103H68.9655V16.5517H74.4828C76.0064 16.5517 77.2414 17.7867 77.2414 19.3103V68.9655H53.7931C53.4272 68.9655 53.0766 69.111 52.8179 69.3697L50.4634 71.7241H32.2952L29.9407 69.3697C29.6821 69.111 29.3314 68.9655 28.9655 68.9655H5.51724V19.3103ZM80 74.4828C80 76.0064 78.765 77.2414 77.2414 77.2414H5.51724C3.99362 77.2414 2.75862 76.0064 2.75862 74.4828V71.7241H28.3945L30.749 74.0786C31.0076 74.3372 31.3583 74.4828 31.7241 74.4828H51.0345C51.4003 74.4828 51.751 74.3372 52.0097 74.0786L54.3641 71.7241H80V74.4828Z"/>
</mask>
<path d="M81.3793 68.9655H80V19.3103C80 16.2633 77.5298 13.7931 74.4828 13.7931H68.9655V5.51724C68.9655 2.47017 66.4953 0 63.4483 0H30.3448C27.2978 0 24.8276 2.47017 24.8276 5.51724V6.89655H22.069C19.0219 6.89655 16.5517 9.36672 16.5517 12.4138V13.7931H8.27586C5.22879 13.7931 2.75862 16.2633 2.75862 19.3103V68.9655H1.37931C0.617586 68.9655 0 69.5831 0 70.3448V74.4828C0 77.5298 2.47017 80 5.51724 80H77.2414C80.2885 80 82.7586 77.5298 82.7586 74.4828V70.3448C82.7586 69.5831 82.141 68.9655 81.3793 68.9655ZM27.5862 5.51724C27.5862 3.99362 28.8212 2.75862 30.3448 2.75862H63.4483C64.9719 2.75862 66.2069 3.99362 66.2069 5.51724V27.5862C66.2069 29.1098 64.9719 30.3448 63.4483 30.3448H60.6897C60.2555 30.3448 59.8467 30.5493 59.5862 30.8966L56.5517 34.9421L53.5172 30.8966C53.2567 30.5493 52.8479 30.3448 52.4138 30.3448H30.3448C28.8212 30.3448 27.5862 29.1098 27.5862 27.5862V5.51724ZM19.3103 12.4138C19.3103 10.8902 20.5453 9.65517 22.069 9.65517H24.8276V27.5862C24.8276 30.6333 27.2978 33.1034 30.3448 33.1034H48.2759V34.4828C48.2759 36.0064 47.0409 37.2414 45.5172 37.2414H35.8621C35.4279 37.2414 35.0191 37.4459 34.7586 37.7931L31.7241 41.8386L28.6897 37.7931C28.4291 37.4459 28.0203 37.2414 27.5862 37.2414H22.069C20.5453 37.2414 19.3103 36.0064 19.3103 34.4828V12.4138ZM22.069 40H26.8966L30.6207 44.9655C31.0778 45.575 31.9422 45.6984 32.5517 45.2414C32.6562 45.1629 32.7491 45.07 32.8276 44.9655L36.5517 40H45.5172C48.5643 40 51.0345 37.5298 51.0345 34.4828V33.1034H51.7241L55.4483 38.069C55.9053 38.6784 56.7698 38.8019 57.3793 38.3448C57.4838 38.2664 57.5767 38.1735 57.6552 38.069L61.3793 33.1034H63.4483C66.4953 33.1034 68.9655 30.6333 68.9655 27.5862V22.069H71.7241V60.6897H66.2069V59.3103C66.2062 57.0172 65.0659 54.8745 63.1641 53.5931C65.3447 51.4647 65.3869 47.9717 63.2586 45.791C61.1302 43.6105 57.6372 43.5683 55.4566 45.6967C53.276 47.8252 53.2338 51.3181 55.3621 53.4988C55.3931 53.5307 55.4247 53.5621 55.4566 53.5931C53.5548 54.8745 52.4145 57.0172 52.4138 59.3103V60.6897H30.3448V59.3103C30.3441 57.0172 29.2038 54.8745 27.3021 53.5931C29.4826 51.4647 29.5248 47.9717 27.3966 45.791C25.2681 43.6105 21.7752 43.5683 19.5945 45.6967C17.414 47.8252 17.3717 51.3181 19.5 53.4988C19.531 53.5307 19.5626 53.5621 19.5945 53.5931C17.6928 54.8745 16.5524 57.0172 16.5517 59.3103V60.6897H11.0345V22.069H16.5517V34.4828C16.5517 37.5298 19.0219 40 22.069 40ZM59.3103 55.1724C61.5957 55.1724 63.4483 57.025 63.4483 59.3103V60.6897H55.1724V59.3103C55.1724 57.025 57.025 55.1724 59.3103 55.1724ZM56.5517 49.6552C56.5517 48.1316 57.7867 46.8966 59.3103 46.8966C60.834 46.8966 62.069 48.1316 62.069 49.6552C62.069 51.1788 60.834 52.4138 59.3103 52.4138C57.7867 52.4138 56.5517 51.1788 56.5517 49.6552ZM23.4483 55.1724C25.7336 55.1724 27.5862 57.025 27.5862 59.3103V60.6897H19.3103V59.3103C19.3103 57.025 21.1629 55.1724 23.4483 55.1724ZM20.6897 49.6552C20.6897 48.1316 21.9247 46.8966 23.4483 46.8966C24.9719 46.8966 26.2069 48.1316 26.2069 49.6552C26.2069 51.1788 24.9719 52.4138 23.4483 52.4138C21.9247 52.4138 20.6897 51.1788 20.6897 49.6552ZM5.51724 19.3103C5.51724 17.7867 6.75224 16.5517 8.27586 16.5517H16.5517V19.3103H9.65517C8.89345 19.3103 8.27586 19.9279 8.27586 20.6897V62.069C8.27586 62.8307 8.89345 63.4483 9.65517 63.4483H73.1034C73.8652 63.4483 74.4828 62.8307 74.4828 62.069V20.6897C74.4828 19.9279 73.8652 19.3103 73.1034 19.3103H68.9655V16.5517H74.4828C76.0064 16.5517 77.2414 17.7867 77.2414 19.3103V68.9655H53.7931C53.4272 68.9655 53.0766 69.111 52.8179 69.3697L50.4634 71.7241H32.2952L29.9407 69.3697C29.6821 69.111 29.3314 68.9655 28.9655 68.9655H5.51724V19.3103ZM80 74.4828C80 76.0064 78.765 77.2414 77.2414 77.2414H5.51724C3.99362 77.2414 2.75862 76.0064 2.75862 74.4828V71.7241H28.3945L30.749 74.0786C31.0076 74.3372 31.3583 74.4828 31.7241 74.4828H51.0345C51.4003 74.4828 51.751 74.3372 52.0097 74.0786L54.3641 71.7241H80V74.4828Z" stroke="#6F6F6F" stroke-width="2" mask="url(#path-1-inside-1)"/>
</svg>
